{
  "Title": "Drive",
  "Year": "2011",
  "Rated": "R",
  "Released": "16 Sep 2011",
  "Runtime": "100 min",
  "Genre": "Crime, Drama",
  "Director": "Nicolas Winding Refn",
  "Writer": "Hossein Amini (screenplay), James Sallis (book)",
  "Actors": "Ryan Gosling, Carey Mulligan, Bryan Cranston, Albert Brooks",
  "Plot": "A mysterious man who has multiple jobs as a garage mechanic, a Hollywood stuntman and a getaway driver seems to be trying to escape his shady past as he falls for his neighbor - whose husband is in prison and who's looking after her child alone. Meanwhile, his garage mechanic boss is trying to set up a race team using gangland money, which implicates our driver as he is to be used as the race team's main driver. Our hero gets more than he bargained for when he meets the man who is married to the woman he loves.",
  "Language": "English, Spanish",
  "Country": "USA",
  "Awards": "Nominated for 1 Oscar. Another 77 wins & 170 nominations.",
  "Poster": "https://m.media-amazon.com/images/M/MV5BZjY5ZjQyMjMtMmEwOC00Nzc2LTllYTItMmU2MzJjNTg1NjY0XkEyXkFqcGdeQXVyNjQ1MTMzMDQ@._V1_SX300.jpg",
  "Ratings": [
    {
      "Source": "Internet Movie Database",
      "Value": "7.8/10"
    },
    {
      "Source": "Rotten Tomatoes",
      "Value": "93%"
    },
    {
      "Source": "Metacritic",
      "Value": "78/100"
    }
  ],
  "Metascore": "78",
  "imdbRating": "7.8",
  "imdbVotes": "511,748",
  "imdbID": "tt0780504",
  "Type": "movie",
  "DVD": "31 Jan 2012",
  "BoxOffice": "$34,300,000",
  "Production": "FilmDistrict",
  "Website": "http://www.drive-movie.com/",
  "Response": "True"
}